%YAML 1.1
%TAG !u! tag:unity3d.com,2011:
--- !u!114 &11400000
MonoBehaviour:
  m_ObjectHideFlags: 0
  m_PrefabParentObject: {fileID: 0}
  m_PrefabInternal: {fileID: 0}
  m_GameObject: {fileID: 0}
  m_Enabled: 1
  m_EditorHideFlags: 0
  m_Script: {fileID: 11500000, guid: 10e68e5a0e1e3664a82f8e9d7789f4c9, type: 3}
  m_Name: PickupSounds
  m_EditorClassIdentifier: 
  clips:
  - {fileID: 8300000, guid: 7b37b838f0eb45c4e9984c4027683c63, type: 3}
  - {fileID: 8300000, guid: 904d23bbf05cb314e856d2fadd20f177, type: 3}
  - {fileID: 8300000, guid: 3751ddff373ed5a4c85f36ceaa172b2b, type: 3}
  - {fileID: 8300000, guid: 43b051af3c2300e4b9bda460f3a86c15, type: 3}
  - {fileID: 8300000, guid: b864044feabe9a2428702981aebc82be, type: 3}
